#regulators  age_at_initial_pathologic_diagnosis last_contact_days_to initial_pathologic_dx_year karnofsky_score vital_status method_initial_path_dx ethnicity race gender 
#continuous death_days_to age_at_initial_pathologic_diagnosis last_contact_days_to initial_pathologic_dx_year karnofsky_score
#discrete  method_initial_path_dx	Tumor resection ethnicity race gender
conditions Exp1 Exp2 Exp3 Exp4 Exp5 Exp6 Exp7 Exp8 Exp9 Exp10 Exp11 Exp12 Exp13 Exp14

gender	FEMALE	MALE	MALE	FEMALE	FEMALE	FEMALE	FEMALE	FEMALE	MALE	MALE	MALE	FEMALE	FEMALE	MALE	MALE	MALE	FEMALE	MALE	MALE	MALE	FEMALE	FEMALE	MALE	FEMALE	MALE	MALE	MALE	MALE	MALE	FEMALE	FEMALE	FEMALE	FEMALE	FEMALE	FEMALE	MALE	MALE	FEMALE	MALE	MALE	FEMALE	MALE	MALE	MALE	FEMALE	FEMALE	FEMALE	FEMALE	FEMALE	MALE	MALE	MALE	FEMALE	MALE	MALE	MALE	FEMALE	FEMALE	MALE	MALE	FEMALE	MALE	MALE	MALE	MALE	FEMALE	FEMALE	MALE	MALE	MALE	MALE	FEMALE	MALE	FEMALE	FEMALE	FEMALE	FEMALE	MALE	MALE	MALE	MALE	FEMALE	MALE	FEMALE	MALE	MALE	FEMALE	FEMALE	MALE	MALE	MALE	MALE	MALE	FEMALE	FEMALE	MALE	FEMALE	MALE	MALE	MALE	MALE	MALE	MALE	MALE	FEMALE	MALE	MALE	MALE	MALE	MALE	MALE	FEMALE	FEMALE	FEMALE	MALE	FEMALE	MALE	FEMALE	MALE	MALE	MALE	MALE	FEMALE	MALE	MALE	FEMALE	FEMALE	MALE	MALE	MALE	MALE	FEMALE	MALE	MALE	FEMALE	MALE	MALE	MALE	MALE	MALE	MALE	MALE	MALE	MALE	MALE	MALE	MALE	MALE	MALE	FEMALE	MALE	FEMALE	FEMALE	MALE	FEMALE	MALE	FEMALE	MALE	FEMALE	MALE	FEMALE	MALE	MALE	FEMALE	MALE	MALE	FEMALE	MALE	FEMALE	MALE	MALE	FEMALE	FEMALE	FEMALE	MALE	MALE	FEMALE	MALE	MALE	FEMALE	FEMALE	MALE	MALE	MALE	MALE	MALE	MALE	MALE	FEMALE	FEMALE	MALE	MALE	MALE	MALE	MALE	FEMALE	MALE	MALE	MALE	MALE	FEMALE	MALE	FEMALE	FEMALE	MALE	MALE	FEMALE	MALE	FEMALE	MALE	FEMALE	MALE	MALE	FEMALE	MALE	FEMALE	FEMALE	FEMALE	FEMALE	MALE	FEMALE	MALE	MALE	MALE	FEMALE	FEMALE	FEMALE	MALE	FEMALE	MALE	FEMALE	FEMALE	MALE	FEMALE	FEMALE	FEMALE	MALE	MALE	FEMALE	FEMALE	MALE	MALE	FEMALE	FEMALE	MALE	FEMALE	MALE	FEMALE	MALE	FEMALE	FEMALE	MALE	FEMALE	MALE	MALE	MALE	MALE	MALE	MALE	MALE	MALE	FEMALE	FEMALE	FEMALE	MALE	MALE	FEMALE	MALE	MALE	FEMALE	FEMALE	MALE	MALE	MALE	MALE	MALE	MALE	MALE	MALE	MALE	FEMALE	MALE	FEMALE	FEMALE	MALE	MALE	MALE	FEMALE	MALE	FEMALE	MALE	FEMALE	FEMALE	MALE	MALE	MALE	MALE	FEMALE	FEMALE	MALE	MALE	MALE	MALE	MALE	FEMALE	MALE	MALE	MALE	MALE	MALE	FEMALE	MALE	MALE	FEMALE	FEMALE	FEMALE	MALE	MALE	MALE	FEMALE	FEMALE	MALE	MALE	FEMALE	MALE	MALE	FEMALE	MALE	FEMALE	MALE	FEMALE	MALE	MALE	FEMALE	FEMALE	FEMALE	FEMALE	FEMALE	MALE	MALE	FEMALE	FEMALE	FEMALE	MALE	MALE	MALE	MALE	FEMALE	FEMALE	FEMALE	MALE	MALE	MALE	MALE	FEMALE	FEMALE	MALE	MALE	FEMALE	MALE	MALE	FEMALE	MALE	MALE	MALE	MALE	FEMALE	FEMALE	FEMALE	MALE	MALE	FEMALE	MALE	FEMALE	FEMALE	MALE	MALE	MALE	FEMALE	MALE	MALE	MALE	FEMALE	MALE	MALE	MALE	FEMALE	MALE	MALE	MALE	FEMALE	FEMALE	MALE	FEMALE	MALE	MALE	MALE	MALE	FEMALE	MALE	MALE	MALE	MALE	FEMALE	MALE	FEMALE	FEMALE	MALE	MALE	FEMALE	FEMALE	MALE	FEMALE	MALE	FEMALE	FEMALE	FEMALE	MALE	MALE	MALE	MALE	MALE	MALE	MALE	FEMALE	FEMALE	FEMALE	MALE	MALE	FEMALE	MALE	FEMALE	FEMALE	MALE	MALE	MALE	MALE	FEMALE	MALE	FEMALE	MALE	FEMALE	FEMALE	FEMALE	FEMALE	MALE	MALE	FEMALE	MALE	FEMALE	MALE	FEMALE	MALE	MALE	MALE	MALE	MALE	MALE	MALE	MALE	FEMALE	MALE	MALE	MALE	MALE	FEMALE	FEMALE	FEMALE	MALE	FEMALE	MALE	MALE	MALE	FEMALE	FEMALE	MALE	FEMALE	FEMALE	MALE	FEMALE	MALE	MALE	MALE	MALE	MALE	FEMALE	MALE	MALE	MALE	FEMALE	MALE	MALE	FEMALE	FEMALE	FEMALE	MALE	FEMALE	MALE	MALE	MALE	MALE	MALE	FEMALE	FEMALE	MALE	FEMALE	MALE	MALE	MALE	MALE	FEMALE	MALE	MALE	MALE	FEMALE	MALE	MALE	FEMALE	MALE	MALE	MALE	MALE	MALE	FEMALE	MALE	FEMALE	MALE	FEMALE	MALE	FEMALE	MALE	MALE	FEMALE	FEMALE	MALE	FEMALE	MALE	MALE	MALE	MALE	MALE	MALE	MALE	FEMALE	MALE	MALE	MALE	MALE	MALE	MALE	MALE	FEMALE	MALE	FEMALE	FEMALE	FEMALE	MALE	MALE	FEMALE	MALE	FEMALE	MALE	MALE	MALE	FEMALE	MALE	MALE	MALE	FEMALE	FEMALE	FEMALE	FEMALE	FEMALE	FEMALE	MALE	MALE	MALE	MALE	MALE	FEMALE	FEMALE	MALE	MALE	MALE	MALE	MALE	MALE	FEMALE	FEMALE	MALE	MALE	FEMALE	MALE	FEMALE	MALE	MALE
race	WHITE	WHITE	WHITE	WHITE	WHITE	WHITE	WHITE	WHITE	WHITE	WHITE	WHITE	WHITE	WHITE	WHITE	WHITE	WHITE	WHITE	WHITE	WHITE	WHITE	WHITE	WHITE	WHITE	WHITE	BLACK OR AFRICAN AMERICAN	WHITE	-1	WHITE	WHITE	WHITE	WHITE	WHITE	WHITE	WHITE	ASIAN	WHITE	WHITE	ASIAN	WHITE	WHITE	WHITE	WHITE	WHITE	WHITE	WHITE	WHITE	WHITE	WHITE	WHITE	WHITE	WHITE	WHITE	WHITE	WHITE	WHITE	ASIAN	WHITE	BLACK OR AFRICAN AMERICAN	ASIAN	WHITE	WHITE	WHITE	-1	WHITE	-1	WHITE	WHITE	WHITE	WHITE	WHITE	WHITE	-1	WHITE	WHITE	BLACK OR AFRICAN AMERICAN	WHITE	WHITE	WHITE	WHITE	WHITE	WHITE	WHITE	WHITE	WHITE	WHITE	WHITE	WHITE	WHITE	WHITE	WHITE	ASIAN	BLACK OR AFRICAN AMERICAN	WHITE	WHITE	WHITE	WHITE	WHITE	WHITE	WHITE	WHITE	ASIAN	WHITE	WHITE	WHITE	WHITE	WHITE	WHITE	WHITE	WHITE	WHITE	WHITE	WHITE	WHITE	WHITE	BLACK OR AFRICAN AMERICAN	WHITE	WHITE	WHITE	WHITE	WHITE	WHITE	WHITE	WHITE	WHITE	WHITE	WHITE	WHITE	ASIAN	WHITE	WHITE	BLACK OR AFRICAN AMERICAN	WHITE	WHITE	WHITE	WHITE	WHITE	WHITE	ASIAN	WHITE	WHITE	WHITE	WHITE	WHITE	WHITE	WHITE	WHITE	WHITE	WHITE	WHITE	WHITE	WHITE	WHITE	WHITE	WHITE	WHITE	WHITE	WHITE	WHITE	WHITE	WHITE	WHITE	WHITE	WHITE	WHITE	WHITE	WHITE	WHITE	BLACK OR AFRICAN AMERICAN	WHITE	WHITE	BLACK OR AFRICAN AMERICAN	WHITE	WHITE	WHITE	WHITE	BLACK OR AFRICAN AMERICAN	WHITE	WHITE	WHITE	BLACK OR AFRICAN AMERICAN	WHITE	WHITE	WHITE	WHITE	WHITE	WHITE	BLACK OR AFRICAN AMERICAN	WHITE	WHITE	BLACK OR AFRICAN AMERICAN	WHITE	WHITE	WHITE	WHITE	WHITE	WHITE	BLACK OR AFRICAN AMERICAN	BLACK OR AFRICAN AMERICAN	WHITE	WHITE	WHITE	WHITE	WHITE	WHITE	WHITE	BLACK OR AFRICAN AMERICAN	WHITE	WHITE	WHITE	WHITE	WHITE	WHITE	ASIAN	WHITE	WHITE	BLACK OR AFRICAN AMERICAN	WHITE	WHITE	WHITE	WHITE	WHITE	WHITE	WHITE	WHITE	WHITE	WHITE	WHITE	WHITE	WHITE	WHITE	WHITE	WHITE	WHITE	WHITE	WHITE	WHITE	WHITE	WHITE	WHITE	WHITE	WHITE	WHITE	BLACK OR AFRICAN AMERICAN	BLACK OR AFRICAN AMERICAN	BLACK OR AFRICAN AMERICAN	BLACK OR AFRICAN AMERICAN	BLACK OR AFRICAN AMERICAN	BLACK OR AFRICAN AMERICAN	WHITE	BLACK OR AFRICAN AMERICAN	WHITE	WHITE	-1	-1	-1	WHITE	-1	WHITE	WHITE	WHITE	WHITE	WHITE	WHITE	WHITE	WHITE	WHITE	WHITE	WHITE	-1	-1	-1	-1	WHITE	-1	WHITE	WHITE	BLACK OR AFRICAN AMERICAN	WHITE	WHITE	WHITE	WHITE	WHITE	WHITE	WHITE	WHITE	BLACK OR AFRICAN AMERICAN	WHITE	WHITE	-1	-1	WHITE	WHITE	WHITE	WHITE	WHITE	WHITE	WHITE	WHITE	BLACK OR AFRICAN AMERICAN	WHITE	WHITE	WHITE	WHITE	WHITE	WHITE	WHITE	WHITE	WHITE	WHITE	WHITE	BLACK OR AFRICAN AMERICAN	WHITE	WHITE	WHITE	WHITE	BLACK OR AFRICAN AMERICAN	WHITE	WHITE	WHITE	WHITE	WHITE	WHITE	BLACK OR AFRICAN AMERICAN	WHITE	WHITE	WHITE	WHITE	WHITE	WHITE	WHITE	WHITE	WHITE	WHITE	WHITE	WHITE	WHITE	WHITE	WHITE	WHITE	WHITE	WHITE	WHITE	WHITE	WHITE	WHITE	WHITE	WHITE	WHITE	WHITE	WHITE	WHITE	BLACK OR AFRICAN AMERICAN	WHITE	BLACK OR AFRICAN AMERICAN	WHITE	WHITE	ASIAN	WHITE	WHITE	WHITE	WHITE	WHITE	WHITE	WHITE	WHITE	WHITE	WHITE	-1	WHITE	WHITE	WHITE	WHITE	WHITE	WHITE	BLACK OR AFRICAN AMERICAN	WHITE	WHITE	WHITE	WHITE	WHITE	WHITE	WHITE	WHITE	-1	WHITE	WHITE	WHITE	WHITE	WHITE	BLACK OR AFRICAN AMERICAN	WHITE	WHITE	WHITE	BLACK OR AFRICAN AMERICAN	BLACK OR AFRICAN AMERICAN	WHITE	WHITE	WHITE	WHITE	WHITE	WHITE	WHITE	WHITE	WHITE	WHITE	WHITE	-1	WHITE	WHITE	WHITE	WHITE	WHITE	WHITE	ASIAN	WHITE	WHITE	WHITE	WHITE	WHITE	WHITE	WHITE	WHITE	WHITE	WHITE	WHITE	WHITE	ASIAN	WHITE	WHITE	WHITE	WHITE	WHITE	BLACK OR AFRICAN AMERICAN	WHITE	WHITE	WHITE	WHITE	WHITE	WHITE	WHITE	WHITE	WHITE	BLACK OR AFRICAN AMERICAN	WHITE	WHITE	WHITE	WHITE	WHITE	WHITE	WHITE	WHITE	WHITE	WHITE	BLACK OR AFRICAN AMERICAN	BLACK OR AFRICAN AMERICAN	BLACK OR AFRICAN AMERICAN	WHITE	WHITE	WHITE	WHITE	WHITE	WHITE	WHITE	WHITE	WHITE	WHITE	WHITE	WHITE	WHITE	WHITE	BLACK OR AFRICAN AMERICAN	WHITE	WHITE	WHITE	WHITE	WHITE	WHITE	WHITE	WHITE	WHITE	WHITE	WHITE	WHITE	WHITE	WHITE	WHITE	WHITE	WHITE	WHITE	WHITE	WHITE	WHITE	WHITE	WHITE	WHITE	WHITE	WHITE	WHITE	WHITE	WHITE	WHITE	WHITE	WHITE	WHITE	WHITE	WHITE	ASIAN	WHITE	WHITE	WHITE	WHITE	BLACK OR AFRICAN AMERICAN	WHITE	WHITE	WHITE	WHITE	WHITE	WHITE	WHITE	WHITE	WHITE	WHITE	WHITE	WHITE	WHITE	WHITE	WHITE	WHITE	WHITE	WHITE	WHITE	WHITE	WHITE	WHITE	WHITE	WHITE	WHITE	WHITE	WHITE	WHITE	WHITE	WHITE	WHITE	WHITE	WHITE	WHITE	WHITE	WHITE	WHITE	WHITE	WHITE	WHITE	WHITE	WHITE	BLACK OR AFRICAN AMERICAN	WHITE	BLACK OR AFRICAN AMERICAN	BLACK OR AFRICAN AMERICAN	BLACK OR AFRICAN AMERICAN	-1	-1	-1	-1	-1	-1	WHITE	WHITE	WHITE	WHITE	WHITE	WHITE	WHITE	WHITE	WHITE	WHITE	WHITE	-1	WHITE	WHITE	WHITE	WHITE	WHITE	BLACK OR AFRICAN AMERICAN	WHITE	WHITE	WHITE	WHITE	WHITE	WHITE	WHITE	WHITE	WHITE	BLACK OR AFRICAN AMERICAN	BLACK OR AFRICAN AMERICAN	BLACK OR AFRICAN AMERICAN	BLACK OR AFRICAN AMERICAN
ethnicity	NOT HISPANIC OR LATINO	NOT HISPANIC OR LATINO	NOT HISPANIC OR LATINO	NOT HISPANIC OR LATINO	NOT HISPANIC OR LATINO	NOT HISPANIC OR LATINO	NOT HISPANIC OR LATINO	HISPANIC OR LATINO	NOT HISPANIC OR LATINO	NOT HISPANIC OR LATINO	NOT HISPANIC OR LATINO	NOT HISPANIC OR LATINO	NOT HISPANIC OR LATINO	NOT HISPANIC OR LATINO	NOT HISPANIC OR LATINO	NOT HISPANIC OR LATINO	NOT HISPANIC OR LATINO	NOT HISPANIC OR LATINO	-1	NOT HISPANIC OR LATINO	NOT HISPANIC OR LATINO	NOT HISPANIC OR LATINO	NOT HISPANIC OR LATINO	HISPANIC OR LATINO	-1	NOT HISPANIC OR LATINO	-1	NOT HISPANIC OR LATINO	NOT HISPANIC OR LATINO	NOT HISPANIC OR LATINO	NOT HISPANIC OR LATINO	NOT HISPANIC OR LATINO	NOT HISPANIC OR LATINO	NOT HISPANIC OR LATINO	NOT HISPANIC OR LATINO	NOT HISPANIC OR LATINO	NOT HISPANIC OR LATINO	NOT HISPANIC OR LATINO	NOT HISPANIC OR LATINO	NOT HISPANIC OR LATINO	NOT HISPANIC OR LATINO	NOT HISPANIC OR LATINO	NOT HISPANIC OR LATINO	NOT HISPANIC OR LATINO	NOT HISPANIC OR LATINO	HISPANIC OR LATINO	NOT HISPANIC OR LATINO	NOT HISPANIC OR LATINO	NOT HISPANIC OR LATINO	NOT HISPANIC OR LATINO	NOT HISPANIC OR LATINO	NOT HISPANIC OR LATINO	NOT HISPANIC OR LATINO	NOT HISPANIC OR LATINO	NOT HISPANIC OR LATINO	NOT HISPANIC OR LATINO	NOT HISPANIC OR LATINO	NOT HISPANIC OR LATINO	NOT HISPANIC OR LATINO	NOT HISPANIC OR LATINO	NOT HISPANIC OR LATINO	HISPANIC OR LATINO	HISPANIC OR LATINO	NOT HISPANIC OR LATINO	-1	NOT HISPANIC OR LATINO	NOT HISPANIC OR LATINO	NOT HISPANIC OR LATINO	NOT HISPANIC OR LATINO	NOT HISPANIC OR LATINO	NOT HISPANIC OR LATINO	NOT HISPANIC OR LATINO	NOT HISPANIC OR LATINO	NOT HISPANIC OR LATINO	NOT HISPANIC OR LATINO	NOT HISPANIC OR LATINO	NOT HISPANIC OR LATINO	NOT HISPANIC OR LATINO	NOT HISPANIC OR LATINO	NOT HISPANIC OR LATINO	NOT HISPANIC OR LATINO	NOT HISPANIC OR LATINO	NOT HISPANIC OR LATINO	NOT HISPANIC OR LATINO	NOT HISPANIC OR LATINO	NOT HISPANIC OR LATINO	NOT HISPANIC OR LATINO	NOT HISPANIC OR LATINO	NOT HISPANIC OR LATINO	NOT HISPANIC OR LATINO	NOT HISPANIC OR LATINO	NOT HISPANIC OR LATINO	NOT HISPANIC OR LATINO	NOT HISPANIC OR LATINO	NOT HISPANIC OR LATINO	NOT HISPANIC OR LATINO	NOT HISPANIC OR LATINO	NOT HISPANIC OR LATINO	NOT HISPANIC OR LATINO	NOT HISPANIC OR LATINO	NOT HISPANIC OR LATINO	NOT HISPANIC OR LATINO	NOT HISPANIC OR LATINO	NOT HISPANIC OR LATINO	NOT HISPANIC OR LATINO	NOT HISPANIC OR LATINO	NOT HISPANIC OR LATINO	NOT HISPANIC OR LATINO	NOT HISPANIC OR LATINO	NOT HISPANIC OR LATINO	NOT HISPANIC OR LATINO	NOT HISPANIC OR LATINO	NOT HISPANIC OR LATINO	NOT HISPANIC OR LATINO	NOT HISPANIC OR LATINO	NOT HISPANIC OR LATINO	NOT HISPANIC OR LATINO	NOT HISPANIC OR LATINO	NOT HISPANIC OR LATINO	NOT HISPANIC OR LATINO	NOT HISPANIC OR LATINO	NOT HISPANIC OR LATINO	NOT HISPANIC OR LATINO	NOT HISPANIC OR LATINO	NOT HISPANIC OR LATINO	NOT HISPANIC OR LATINO	NOT HISPANIC OR LATINO	NOT HISPANIC OR LATINO	NOT HISPANIC OR LATINO	NOT HISPANIC OR LATINO	NOT HISPANIC OR LATINO	NOT HISPANIC OR LATINO	NOT HISPANIC OR LATINO	NOT HISPANIC OR LATINO	NOT HISPANIC OR LATINO	NOT HISPANIC OR LATINO	NOT HISPANIC OR LATINO	NOT HISPANIC OR LATINO	NOT HISPANIC OR LATINO	NOT HISPANIC OR LATINO	NOT HISPANIC OR LATINO	NOT HISPANIC OR LATINO	NOT HISPANIC OR LATINO	NOT HISPANIC OR LATINO	NOT HISPANIC OR LATINO	NOT HISPANIC OR LATINO	NOT HISPANIC OR LATINO	NOT HISPANIC OR LATINO	NOT HISPANIC OR LATINO	NOT HISPANIC OR LATINO	NOT HISPANIC OR LATINO	NOT HISPANIC OR LATINO	NOT HISPANIC OR LATINO	NOT HISPANIC OR LATINO	NOT HISPANIC OR LATINO	NOT HISPANIC OR LATINO	NOT HISPANIC OR LATINO	NOT HISPANIC OR LATINO	NOT HISPANIC OR LATINO	NOT HISPANIC OR LATINO	NOT HISPANIC OR LATINO	NOT HISPANIC OR LATINO	NOT HISPANIC OR LATINO	NOT HISPANIC OR LATINO	NOT HISPANIC OR LATINO	NOT HISPANIC OR LATINO	NOT HISPANIC OR LATINO	NOT HISPANIC OR LATINO	NOT HISPANIC OR LATINO	NOT HISPANIC OR LATINO	NOT HISPANIC OR LATINO	NOT HISPANIC OR LATINO	NOT HISPANIC OR LATINO	NOT HISPANIC OR LATINO	NOT HISPANIC OR LATINO	NOT HISPANIC OR LATINO	NOT HISPANIC OR LATINO	NOT HISPANIC OR LATINO	NOT HISPANIC OR LATINO	NOT HISPANIC OR LATINO	NOT HISPANIC OR LATINO	NOT HISPANIC OR LATINO	NOT HISPANIC OR LATINO	NOT HISPANIC OR LATINO	NOT HISPANIC OR LATINO	NOT HISPANIC OR LATINO	NOT HISPANIC OR LATINO	NOT HISPANIC OR LATINO	NOT HISPANIC OR LATINO	NOT HISPANIC OR LATINO	NOT HISPANIC OR LATINO	NOT HISPANIC OR LATINO	NOT HISPANIC OR LATINO	NOT HISPANIC OR LATINO	NOT HISPANIC OR LATINO	NOT HISPANIC OR LATINO	NOT HISPANIC OR LATINO	NOT HISPANIC OR LATINO	NOT HISPANIC OR LATINO	NOT HISPANIC OR LATINO	NOT HISPANIC OR LATINO	NOT HISPANIC OR LATINO	NOT HISPANIC OR LATINO	NOT HISPANIC OR LATINO	NOT HISPANIC OR LATINO	NOT HISPANIC OR LATINO	NOT HISPANIC OR LATINO	NOT HISPANIC OR LATINO	NOT HISPANIC OR LATINO	NOT HISPANIC OR LATINO	NOT HISPANIC OR LATINO	NOT HISPANIC OR LATINO	NOT HISPANIC OR LATINO	NOT HISPANIC OR LATINO	NOT HISPANIC OR LATINO	NOT HISPANIC OR LATINO	NOT HISPANIC OR LATINO	NOT HISPANIC OR LATINO	NOT HISPANIC OR LATINO	NOT HISPANIC OR LATINO	NOT HISPANIC OR LATINO	NOT HISPANIC OR LATINO	NOT HISPANIC OR LATINO	NOT HISPANIC OR LATINO	NOT HISPANIC OR LATINO	NOT HISPANIC OR LATINO	NOT HISPANIC OR LATINO	NOT HISPANIC OR LATINO	NOT HISPANIC OR LATINO	NOT HISPANIC OR LATINO	NOT HISPANIC OR LATINO	NOT HISPANIC OR LATINO	NOT HISPANIC OR LATINO	NOT HISPANIC OR LATINO	NOT HISPANIC OR LATINO	NOT HISPANIC OR LATINO	NOT HISPANIC OR LATINO	NOT HISPANIC OR LATINO	NOT HISPANIC OR LATINO	NOT HISPANIC OR LATINO	NOT HISPANIC OR LATINO	NOT HISPANIC OR LATINO	NOT HISPANIC OR LATINO	NOT HISPANIC OR LATINO	NOT HISPANIC OR LATINO	NOT HISPANIC OR LATINO	NOT HISPANIC OR LATINO	NOT HISPANIC OR LATINO	NOT HISPANIC OR LATINO	NOT HISPANIC OR LATINO	NOT HISPANIC OR LATINO	NOT HISPANIC OR LATINO	-1	-1	-1	NOT HISPANIC OR LATINO	NOT HISPANIC OR LATINO	NOT HISPANIC OR LATINO	NOT HISPANIC OR LATINO	NOT HISPANIC OR LATINO	NOT HISPANIC OR LATINO	NOT HISPANIC OR LATINO	NOT HISPANIC OR LATINO	NOT HISPANIC OR LATINO	NOT HISPANIC OR LATINO	NOT HISPANIC OR LATINO	NOT HISPANIC OR LATINO	NOT HISPANIC OR LATINO	-1	-1	-1	NOT HISPANIC OR LATINO	NOT HISPANIC OR LATINO	NOT HISPANIC OR LATINO	NOT HISPANIC OR LATINO	NOT HISPANIC OR LATINO	NOT HISPANIC OR LATINO	NOT HISPANIC OR LATINO	NOT HISPANIC OR LATINO	NOT HISPANIC OR LATINO	NOT HISPANIC OR LATINO	NOT HISPANIC OR LATINO	NOT HISPANIC OR LATINO	NOT HISPANIC OR LATINO	NOT HISPANIC OR LATINO	HISPANIC OR LATINO	-1	NOT HISPANIC OR LATINO	NOT HISPANIC OR LATINO	HISPANIC OR LATINO	NOT HISPANIC OR LATINO	NOT HISPANIC OR LATINO	NOT HISPANIC OR LATINO	NOT HISPANIC OR LATINO	NOT HISPANIC OR LATINO	NOT HISPANIC OR LATINO	NOT HISPANIC OR LATINO	NOT HISPANIC OR LATINO	NOT HISPANIC OR LATINO	NOT HISPANIC OR LATINO	NOT HISPANIC OR LATINO	NOT HISPANIC OR LATINO	NOT HISPANIC OR LATINO	NOT HISPANIC OR LATINO	NOT HISPANIC OR LATINO	NOT HISPANIC OR LATINO	NOT HISPANIC OR LATINO	NOT HISPANIC OR LATINO	NOT HISPANIC OR LATINO	NOT HISPANIC OR LATINO	NOT HISPANIC OR LATINO	NOT HISPANIC OR LATINO	NOT HISPANIC OR LATINO	NOT HISPANIC OR LATINO	NOT HISPANIC OR LATINO	NOT HISPANIC OR LATINO	NOT HISPANIC OR LATINO	NOT HISPANIC OR LATINO	NOT HISPANIC OR LATINO	NOT HISPANIC OR LATINO	NOT HISPANIC OR LATINO	NOT HISPANIC OR LATINO	NOT HISPANIC OR LATINO	NOT HISPANIC OR LATINO	NOT HISPANIC OR LATINO	NOT HISPANIC OR LATINO	NOT HISPANIC OR LATINO	NOT HISPANIC OR LATINO	NOT HISPANIC OR LATINO	NOT HISPANIC OR LATINO	NOT HISPANIC OR LATINO	NOT HISPANIC OR LATINO	NOT HISPANIC OR LATINO	NOT HISPANIC OR LATINO	NOT HISPANIC OR LATINO	NOT HISPANIC OR LATINO	NOT HISPANIC OR LATINO	NOT HISPANIC OR LATINO	NOT HISPANIC OR LATINO	NOT HISPANIC OR LATINO	NOT HISPANIC OR LATINO	NOT HISPANIC OR LATINO	NOT HISPANIC OR LATINO	NOT HISPANIC OR LATINO	NOT HISPANIC OR LATINO	NOT HISPANIC OR LATINO	NOT HISPANIC OR LATINO	NOT HISPANIC OR LATINO	NOT HISPANIC OR LATINO	NOT HISPANIC OR LATINO	NOT HISPANIC OR LATINO	-1	-1	-1	-1	-1	NOT HISPANIC OR LATINO	-1	-1	-1	-1	-1	-1	-1	-1	-1	-1	-1	-1	-1	-1	-1	-1	-1	-1	-1	-1	-1	-1	-1	-1	-1	-1	-1	-1	-1	-1	NOT HISPANIC OR LATINO	-1	-1	-1	-1	-1	NOT HISPANIC OR LATINO	-1	NOT HISPANIC OR LATINO	NOT HISPANIC OR LATINO	-1	-1	-1	NOT HISPANIC OR LATINO	NOT HISPANIC OR LATINO	NOT HISPANIC OR LATINO	NOT HISPANIC OR LATINO	-1	NOT HISPANIC OR LATINO	NOT HISPANIC OR LATINO	NOT HISPANIC OR LATINO	NOT HISPANIC OR LATINO	NOT HISPANIC OR LATINO	NOT HISPANIC OR LATINO	NOT HISPANIC OR LATINO	NOT HISPANIC OR LATINO	NOT HISPANIC OR LATINO	NOT HISPANIC OR LATINO	NOT HISPANIC OR LATINO	NOT HISPANIC OR LATINO	NOT HISPANIC OR LATINO	NOT HISPANIC OR LATINO	NOT HISPANIC OR LATINO	NOT HISPANIC OR LATINO	NOT HISPANIC OR LATINO	NOT HISPANIC OR LATINO	NOT HISPANIC OR LATINO	NOT HISPANIC OR LATINO	NOT HISPANIC OR LATINO	NOT HISPANIC OR LATINO	NOT HISPANIC OR LATINO	NOT HISPANIC OR LATINO	NOT HISPANIC OR LATINO	NOT HISPANIC OR LATINO	NOT HISPANIC OR LATINO	NOT HISPANIC OR LATINO	NOT HISPANIC OR LATINO	NOT HISPANIC OR LATINO	NOT HISPANIC OR LATINO	NOT HISPANIC OR LATINO	NOT HISPANIC OR LATINO	NOT HISPANIC OR LATINO	NOT HISPANIC OR LATINO	HISPANIC OR LATINO	NOT HISPANIC OR LATINO	NOT HISPANIC OR LATINO	NOT HISPANIC OR LATINO	NOT HISPANIC OR LATINO	NOT HISPANIC OR LATINO	NOT HISPANIC OR LATINO	NOT HISPANIC OR LATINO	NOT HISPANIC OR LATINO	NOT HISPANIC OR LATINO	NOT HISPANIC OR LATINO	NOT HISPANIC OR LATINO	NOT HISPANIC OR LATINO	NOT HISPANIC OR LATINO	NOT HISPANIC OR LATINO	NOT HISPANIC OR LATINO	NOT HISPANIC OR LATINO	NOT HISPANIC OR LATINO	NOT HISPANIC OR LATINO	NOT HISPANIC OR LATINO	NOT HISPANIC OR LATINO	NOT HISPANIC OR LATINO	NOT HISPANIC OR LATINO	NOT HISPANIC OR LATINO	NOT HISPANIC OR LATINO	NOT HISPANIC OR LATINO	NOT HISPANIC OR LATINO	NOT HISPANIC OR LATINO	NOT HISPANIC OR LATINO	NOT HISPANIC OR LATINO	NOT HISPANIC OR LATINO	NOT HISPANIC OR LATINO	NOT HISPANIC OR LATINO	NOT HISPANIC OR LATINO	NOT HISPANIC OR LATINO	NOT HISPANIC OR LATINO	NOT HISPANIC OR LATINO	NOT HISPANIC OR LATINO	NOT HISPANIC OR LATINO	NOT HISPANIC OR LATINO	NOT HISPANIC OR LATINO	NOT HISPANIC OR LATINO	NOT HISPANIC OR LATINO	NOT HISPANIC OR LATINO	NOT HISPANIC OR LATINO	NOT HISPANIC OR LATINO	NOT HISPANIC OR LATINO	NOT HISPANIC OR LATINO	NOT HISPANIC OR LATINO	NOT HISPANIC OR LATINO	NOT HISPANIC OR LATINO	NOT HISPANIC OR LATINO	NOT HISPANIC OR LATINO	NOT HISPANIC OR LATINO	NOT HISPANIC OR LATINO	HISPANIC OR LATINO	NOT HISPANIC OR LATINO	NOT HISPANIC OR LATINO	NOT HISPANIC OR LATINO	NOT HISPANIC OR LATINO	-1	NOT HISPANIC OR LATINO	NOT HISPANIC OR LATINO	NOT HISPANIC OR LATINO	-1	NOT HISPANIC OR LATINO	NOT HISPANIC OR LATINO	-1	-1	-1	-1	-1	-1	-1	-1	-1	-1	-1	-1	-1	-1	HISPANIC OR LATINO	NOT HISPANIC OR LATINO	HISPANIC OR LATINO	NOT HISPANIC OR LATINO	NOT HISPANIC OR LATINO	NOT HISPANIC OR LATINO	NOT HISPANIC OR LATINO	NOT HISPANIC OR LATINO	NOT HISPANIC OR LATINO	NOT HISPANIC OR LATINO	NOT HISPANIC OR LATINO	NOT HISPANIC OR LATINO	NOT HISPANIC OR LATINO	NOT HISPANIC OR LATINO	HISPANIC OR LATINO	NOT HISPANIC OR LATINO	NOT HISPANIC OR LATINO	NOT HISPANIC OR LATINO	NOT HISPANIC OR LATINO	HISPANIC OR LATINO	NOT HISPANIC OR LATINO	NOT HISPANIC OR LATINO	NOT HISPANIC OR LATINO	NOT HISPANIC OR LATINO	NOT HISPANIC OR LATINO	NOT HISPANIC OR LATINO	NOT HISPANIC OR LATINO	NOT HISPANIC OR LATINO	NOT HISPANIC OR LATINO	NOT HISPANIC OR LATINO	NOT HISPANIC OR LATINO	NOT HISPANIC OR LATINO	NOT HISPANIC OR LATINO	NOT HISPANIC OR LATINO	NOT HISPANIC OR LATINO	NOT HISPANIC OR LATINO	NOT HISPANIC OR LATINO	NOT HISPANIC OR LATINO	-1	-1	-1	-1	-1	-1	NOT HISPANIC OR LATINO	-1	-1	-1	NOT HISPANIC OR LATINO	-1	-1	-1	-1	-1	NOT HISPANIC OR LATINO	-1	NOT HISPANIC OR LATINO	NOT HISPANIC OR LATINO	NOT HISPANIC OR LATINO	-1	NOT HISPANIC OR LATINO	NOT HISPANIC OR LATINO	NOT HISPANIC OR LATINO	NOT HISPANIC OR LATINO	-1	NOT HISPANIC OR LATINO	-1	-1	-1	-1	NOT HISPANIC OR LATINO	NOT HISPANIC OR LATINO	NOT HISPANIC OR LATINO	NOT HISPANIC OR LATINO	NOT HISPANIC OR LATINO
initial_pathologic_dx_year	2002	2003	2002	2002	2002	2003	2002	2004	1997	2002	2004	1999	2003	2000	2002	2003	2005	1998	2003	2003	2004	2004	2005	2004	2004	2005	2005	2005	2005	2005	2005	2004	2005	2005	2006	2005	2006	2006	2006	2005	2005	2005	2005	1999	2005	2005	2003	2005	2004	2005	2004	2004	2001	2004	2004	2004	2001	1998	2006	2003	1989	1989	1990	1990	1990	1991	1991	1992	1992	1994	1995	1995	1996	1995	1995	1995	1996	1996	1996	1995	1996	1997	1997	1997	1997	1997	1998	1998	2007	2007	2008	2009	2008	2005	2006	1998	2001	2001	2002	2000	2002	2003	2007	2007	2003	2004	2006	2003	2000	2002	2006	2002	1995	1999	2002	2005	1995	1995	1995	1998	1998	1998	1998	1998	1998	1999	2000	2000	2001	2001	2001	2002	2002	2002	2003	2003	2003	2004	2004	2004	2004	2004	2005	2005	2006	2006	2006	2006	2007	1994	1994	1994	1995	1996	1997	1997	1997	1997	1998	1998	1999	2000	2000	2006	2007	2007	2007	1992	1993	1993	1994	1995	1995	1995	1996	2007	2007	2007	2007	2007	2007	2008	2006	2007	2007	2007	2008	2008	2008	2008	2008	2008	2008	2008	2008	2008	2008	2008	2008	2006	2008	2008	2009	2009	2009	2008	2008	2009	2009	2009	2009	2009	2009	2009	2009	2009	2009	2009	2010	2010	2010	2010	2010	2010	2010	2010	2010	2010	2010	2011	2011	2011	2011	2011	1993	1994	2010	2010	2011	2011	2011	2011	2012	2011	2011	2012	2013	2013	2001	2001	2001	1992	1992	1993	1993	2000	2000	2001	2001	2003	2003	2003	2003	2004	2004	2005	2005	2005	1994	1994	1997	2003	2005	2005	2005	2005	1999	2000	2000	2000	2001	2001	1996	2001	2001	2002	2002	2002	2001	2004	2005	2005	2006	2003	2003	2005	2002	2000	1997	1996	1998	2001	1998	1999	2000	1996	1997	2002	2003	2003	2004	2005	2006	2006	1994	1995	1997	1998	1998	1999	1999	2000	2006	1989	2000	2001	2001	2006	2006	2006	2006	2007	2007	2007	2008	2002	2006	2006	2006	2008	2004	2005	2007	2008	2008	2008	2003	2008	2008	2009	2010	1999	2002	2003	2000	1998	1999	2005	2006	2003	2004	2002	2002	2002	2002	2002	1998	1999	2002	2004	2003	2003	2004	2005	2005	2005	2005	2005	2005	2005	2006	2008	2007	2005	2006	2005	2007	2007	1998	2009	2002	2009	2009	2009	2010	2005	2004	2006	2004	2006	2006	2007	2007	2007	2008	2006	2005	2004	2006	2005	2006	2006	2008	2007	2007	2008	2008	2008	2008	2008	2008	2008	2008	2008	2007	2008	2008	2008	2009	2009	2008	2009	2009	2009	2009	2009	2009	2009	2009	2009	2009	2009	2010	2010	2010	2010	2010	2010	2010	2010	2010	2010	2010	2012	2013	2012	2008	2007	2008	2008	2008	2008	2009	2009	2009	2009	2009	2010	2010	2011	2013	2007	2006	2007	2006	2006	2007	2007	2007	2008	2007	2009	2009	2005	2008	2007	2007	2008	2008	2008	2008	2009	2009	2009	2009	2009	2009	2009	2009	2009	2009	2009	2009	2009	2009	2009	2009	2009	2010	2010	2010	2010	2010	2010	2010	2010	2010	2010	2010	2010	2005	2008	2008	2009	2008	2008	2008	2008	2008	2009	2009	2005	2008	2008	2009	2008	2008	2009	2009	2009	2009	2010	2010	2009	2010	2010	2009	2009	2009	2009	2009	2009	2010	2010	2010	2011	2012	2013	2012	2009	2009	2010	2010	2010	2010	2005	2005	2005	2005	2005	2005	2006	2009	2010	2009	2010	2010	2007	2007	2007	2008	2009	2010	2010	2010	2011	2011	2011	2011	2009	2010	2010	2012	2012	2007	2010
method_initial_path_dx	Tumor resection	Tumor resection	Tumor resection	Tumor resection	Tumor resection	Tumor resection	Tumor resection	Tumor resection	Tumor resection	Tumor resection	Tumor resection	Tumor resection	Tumor resection	Tumor resection	Tumor resection	Tumor resection	Tumor resection	Tumor resection	Tumor resection	Tumor resection	Tumor resection	Tumor resection	Tumor resection	Tumor resection	Tumor resection	Tumor resection	-1	Tumor resection	Tumor resection	Tumor resection	Tumor resection	Tumor resection	Tumor resection	Tumor resection	Tumor resection	Tumor resection	Tumor resection	Tumor resection	Tumor resection	Tumor resection	Tumor resection	Tumor resection	Tumor resection	Tumor resection	Tumor resection	Tumor resection	Tumor resection	Tumor resection	Tumor resection	Tumor resection	Tumor resection	Tumor resection	Tumor resection	Tumor resection	Tumor resection	Tumor resection	Tumor resection	Tumor resection	Tumor resection	Tumor resection	Tumor resection	Tumor resection	Tumor resection	Tumor resection	-1	Tumor resection	Tumor resection	Tumor resection	Tumor resection	Tumor resection	Tumor resection	Tumor resection	Tumor resection	Tumor resection	Tumor resection	Tumor resection	Tumor resection	Tumor resection	Tumor resection	Tumor resection	Tumor resection	Tumor resection	Tumor resection	Tumor resection	Tumor resection	Tumor resection	Tumor resection	Tumor resection	Excisional Biopsy	Tumor resection	Excisional Biopsy	Excisional Biopsy	Excisional Biopsy	Tumor resection	Tumor resection	Tumor resection	Tumor resection	Tumor resection	Tumor resection	Tumor resection	Tumor resection	Tumor resection	Tumor resection	Tumor resection	Tumor resection	Tumor resection	Tumor resection	Tumor resection	Tumor resection	Tumor resection	Tumor resection	Tumor resection	Tumor resection	Tumor resection	Tumor resection	Tumor resection	Tumor resection	Tumor resection	Tumor resection	Tumor resection	Tumor resection	Tumor resection	Tumor resection	Tumor resection	Tumor resection	Tumor resection	Tumor resection	Tumor resection	Tumor resection	Tumor resection	Tumor resection	Tumor resection	Tumor resection	Tumor resection	Tumor resection	Tumor resection	Tumor resection	Tumor resection	Tumor resection	Tumor resection	Tumor resection	Tumor resection	Tumor resection	Tumor resection	Tumor resection	Tumor resection	Tumor resection	Tumor resection	Tumor resection	Tumor resection	Tumor resection	Tumor resection	Tumor resection	Tumor resection	Tumor resection	Tumor resection	Tumor resection	Tumor resection	Tumor resection	Tumor resection	Tumor resection	Tumor resection	Tumor resection	Tumor resection	Tumor resection	Tumor resection	Tumor resection	Tumor resection	Tumor resection	Tumor resection	Tumor resection	Tumor resection	Tumor resection	Tumor resection	Tumor resection	Tumor resection	Tumor resection	Tumor resection	Tumor resection	Tumor resection	Tumor resection	Tumor resection	Tumor resection	Tumor resection	Tumor resection	Tumor resection	Tumor resection	Tumor resection	Tumor resection	Tumor resection	Tumor resection	Tumor resection	Tumor resection	Tumor resection	Tumor resection	Tumor resection	Tumor resection	Tumor resection	Tumor resection	Tumor resection	Tumor resection	Tumor resection	Tumor resection	Tumor resection	Tumor resection	Tumor resection	Tumor resection	Tumor resection	Tumor resection	Tumor resection	Tumor resection	Tumor resection	Tumor resection	Tumor resection	Tumor resection	Tumor resection	Tumor resection	Tumor resection	Tumor resection	Tumor resection	Tumor resection	Tumor resection	Tumor resection	Incisional Biopsy	Tumor resection	Tumor resection	Tumor resection	Tumor resection	Tumor resection	Tumor resection	Tumor resection	Tumor resection	Tumor resection	Tumor resection	Tumor resection	Tumor resection	Tumor resection	Tumor resection	Tumor resection	Tumor resection	Tumor resection	Tumor resection	Tumor resection	Tumor resection	Excisional Biopsy	Tumor resection	-1	Tumor resection	Tumor resection	Tumor resection	Tumor resection	Tumor resection	Tumor resection	Tumor resection	Tumor resection	Tumor resection	Tumor resection	Tumor resection	Other method  specify 	Tumor resection	Tumor resection	Tumor resection	Tumor resection	Tumor resection	Tumor resection	Tumor resection	Tumor resection	Tumor resection	Tumor resection	Excisional Biopsy	Tumor resection	Tumor resection	Tumor resection	Tumor resection	Tumor resection	Excisional Biopsy	Tumor resection	Tumor resection	Tumor resection	Tumor resection	Tumor resection	Tumor resection	Tumor resection	Tumor resection	Tumor resection	Tumor resection	Tumor resection	Tumor resection	Tumor resection	Tumor resection	Tumor resection	Excisional Biopsy	Excisional Biopsy	Excisional Biopsy	Excisional Biopsy	Excisional Biopsy	Excisional Biopsy	Excisional Biopsy	Excisional Biopsy	Excisional Biopsy	Excisional Biopsy	Excisional Biopsy	Excisional Biopsy	Excisional Biopsy	Excisional Biopsy	Excisional Biopsy	Excisional Biopsy	Excisional Biopsy	Excisional Biopsy	Excisional Biopsy	Excisional Biopsy	Excisional Biopsy	Excisional Biopsy	Excisional Biopsy	Excisional Biopsy	Excisional Biopsy	Excisional Biopsy	Excisional Biopsy	Excisional Biopsy	Excisional Biopsy	Excisional Biopsy	Excisional Biopsy	Excisional Biopsy	Tumor resection	Excisional Biopsy	Excisional Biopsy	Excisional Biopsy	Excisional Biopsy	Excisional Biopsy	Excisional Biopsy	Excisional Biopsy	Excisional Biopsy	Excisional Biopsy	Tumor resection	Excisional Biopsy	Tumor resection	Tumor resection	Tumor resection	Tumor resection	Tumor resection	Excisional Biopsy	Excisional Biopsy	Excisional Biopsy	Excisional Biopsy	Excisional Biopsy	Excisional Biopsy	Excisional Biopsy	Excisional Biopsy	Tumor resection	Tumor resection	Tumor resection	Tumor resection	Tumor resection	Tumor resection	Tumor resection	Tumor resection	Incisional Biopsy	Tumor resection	Tumor resection	Tumor resection	Tumor resection	Tumor resection	Tumor resection	Tumor resection	Tumor resection	Tumor resection	Tumor resection	Tumor resection	Tumor resection	Tumor resection	Tumor resection	Tumor resection	Tumor resection	Tumor resection	Tumor resection	Tumor resection	Tumor resection	Tumor resection	Tumor resection	Tumor resection	Tumor resection	Tumor resection	Tumor resection	Tumor resection	Tumor resection	Tumor resection	Tumor resection	Tumor resection	Tumor resection	Tumor resection	Tumor resection	Tumor resection	Tumor resection	Tumor resection	Tumor resection	Tumor resection	Tumor resection	Fine needle aspiration biopsy	Tumor resection	Tumor resection	Tumor resection	Tumor resection	Tumor resection	Tumor resection	Tumor resection	Tumor resection	Tumor resection	Tumor resection	Tumor resection	Tumor resection	Tumor resection	Tumor resection	Tumor resection	Fine needle aspiration biopsy	Tumor resection	Excisional Biopsy	Tumor resection	Tumor resection	Tumor resection	Tumor resection	Tumor resection	Tumor resection	Tumor resection	Tumor resection	Tumor resection	Tumor resection	Tumor resection	Tumor resection	Tumor resection	Tumor resection	Tumor resection	Tumor resection	Tumor resection	Tumor resection	Tumor resection	Tumor resection	Tumor resection	Tumor resection	Tumor resection	Tumor resection	Tumor resection	Tumor resection	Tumor resection	Tumor resection	Tumor resection	Tumor resection	Tumor resection	Tumor resection	Tumor resection	Tumor resection	Tumor resection	Tumor resection	Tumor resection	Tumor resection	Tumor resection	Tumor resection	Tumor resection	Tumor resection	Tumor resection	Tumor resection	Tumor resection	Tumor resection	Tumor resection	Tumor resection	Tumor resection	Tumor resection	Tumor resection	Tumor resection	Tumor resection	Tumor resection	Tumor resection	Tumor resection	Tumor resection	Tumor resection	Tumor resection	Tumor resection	Tumor resection	Tumor resection	Tumor resection	Tumor resection	Tumor resection	Tumor resection	Tumor resection	Tumor resection	Tumor resection	Tumor resection	Tumor resection	Tumor resection	Tumor resection	Tumor resection	Fine needle aspiration biopsy	Tumor resection	Tumor resection	Tumor resection	Tumor resection	Tumor resection	Tumor resection	Tumor resection	Tumor resection	Tumor resection	-1	Tumor resection	Tumor resection	Tumor resection	Tumor resection	Tumor resection	Tumor resection	Tumor resection	Tumor resection	Tumor resection	Tumor resection	Tumor resection	Tumor resection	Tumor resection	Tumor resection	Tumor resection	Tumor resection	Tumor resection	Tumor resection	Tumor resection	Tumor resection	Tumor resection	Tumor resection	Tumor resection	Tumor resection	Tumor resection	Tumor resection	Tumor resection	Tumor resection	Tumor resection	Tumor resection	Tumor resection	Tumor resection	Tumor resection	Tumor resection	Tumor resection	Tumor resection	Tumor resection	Tumor resection	Tumor resection	Tumor resection	Tumor resection	Tumor resection	Tumor resection	Tumor resection	Tumor resection	Incisional Biopsy	Excisional Biopsy	Excisional Biopsy	Excisional Biopsy	Tumor resection	Other method  specify 	Incisional Biopsy	Excisional Biopsy	Tumor resection	Tumor resection	Tumor resection	Tumor resection	Tumor resection	Tumor resection	Tumor resection	Tumor resection	Tumor resection	Tumor resection	Tumor resection	Tumor resection	Tumor resection	Tumor resection	Tumor resection	Tumor resection	Tumor resection	Tumor resection	Tumor resection	Tumor resection	Tumor resection	Tumor resection	Tumor resection	Tumor resection	Tumor resection	Tumor resection	Tumor resection	Tumor resection	Tumor resection	Tumor resection	Tumor resection	Tumor resection	Tumor resection	Tumor resection	Tumor resection	Tumor resection	Tumor resection	Tumor resection	Tumor resection	Tumor resection	Tumor resection	Tumor resection
vital_status	Dead	Dead	Dead	Dead	Dead	Dead	Dead	Dead	Dead	Dead	Alive	Dead	Dead	Dead	Dead	Dead	Dead	Dead	Dead	Dead	Dead	Dead	Dead	Dead	Dead	Dead	Dead	Dead	Dead	Dead	Dead	Dead	Dead	Dead	Dead	Dead	Dead	Alive	Alive	Dead	Dead	Dead	Dead	Dead	Dead	Dead	Dead	Dead	Alive	Dead	Dead	Dead	Dead	Dead	Dead	Dead	Alive	Dead	Dead	Dead	Dead	Dead	Dead	Dead	Dead	Dead	Dead	Dead	Dead	Dead	Dead	Dead	Dead	Dead	Dead	Dead	Dead	Dead	Dead	Dead	Dead	Dead	Dead	Dead	Dead	Dead	Dead	Dead	Dead	Dead	Alive	Alive	Alive	Dead	Dead	Dead	Dead	Dead	Dead	Dead	Dead	Dead	Dead	Dead	Dead	Dead	Dead	Dead	Dead	Dead	Dead	Dead	Dead	Dead	Dead	Dead	Dead	Dead	Dead	Dead	Dead	Dead	Dead	Dead	Dead	Dead	Dead	Dead	Dead	Dead	Dead	Dead	Dead	Dead	Dead	Dead	Dead	Alive	Dead	Alive	Dead	Dead	Alive	Alive	Dead	Alive	Dead	Dead	Alive	Dead	Dead	Dead	Dead	Dead	Dead	Dead	Dead	Dead	Dead	Dead	Dead	Dead	Dead	Dead	Dead	Dead	Alive	Dead	Dead	Dead	Dead	Dead	Dead	Dead	Dead	Alive	Dead	Dead	Dead	Dead	Dead	Alive	Alive	Alive	Dead	Dead	Dead	Dead	Alive	Alive	Alive	Alive	Alive	Alive	Alive	Alive	Alive	Dead	Dead	Dead	Alive	Alive	Dead	Alive	Dead	Dead	Dead	Dead	Alive	Alive	Alive	Alive	Alive	Dead	Dead	Alive	Alive	Dead	Dead	Dead	Dead	Alive	Alive	Alive	Alive	Alive	Dead	Dead	Alive	Alive	Dead	Alive	Dead	Dead	Dead	Dead	Alive	Alive	Alive	Alive	Alive	Alive	Alive	Dead	Dead	Dead	Alive	Alive	Dead	Dead	Dead	Dead	Dead	Dead	Dead	Dead	Dead	Dead	Dead	Dead	Dead	Dead	Dead	Dead	Dead	Dead	Dead	Dead	Dead	Dead	Dead	Dead	Dead	Dead	Dead	Dead	Dead	Dead	Dead	Dead	Dead	Dead	Dead	Dead	Dead	Dead	Dead	Dead	Dead	Dead	Dead	Dead	Dead	Dead	Dead	Dead	Dead	Dead	Dead	Dead	Dead	Dead	Dead	Dead	Dead	Dead	Dead	Dead	Dead	Dead	Dead	Dead	Dead	Dead	Dead	Dead	Dead	Dead	Dead	Dead	Dead	Dead	Dead	Dead	Dead	Dead	Dead	Dead	Dead	Dead	Dead	Dead	Dead	Dead	Dead	Dead	Dead	Dead	Dead	Dead	Dead	Dead	Dead	Dead	Dead	Dead	Dead	Dead	Dead	Dead	Dead	Dead	Dead	Dead	Dead	Dead	Dead	Dead	Dead	Dead	Dead	Dead	Dead	Dead	Dead	Dead	Dead	Dead	Dead	Dead	Dead	Dead	Dead	Dead	Alive	Dead	Dead	Dead	Dead	Dead	Alive	Dead	Dead	Dead	Dead	Dead	Dead	Dead	Dead	Alive	Dead	Alive	Dead	Alive	Alive	Dead	Dead	Alive	Alive	Dead	Dead	Dead	Alive	Dead	-1	Dead	Dead	Dead	Dead	Dead	Dead	Dead	Alive	Alive	Dead	Alive	Dead	Dead	Alive	Dead	Dead	Alive	Dead	Dead	Dead	Dead	Alive	Dead	Dead	Dead	Dead	Alive	Alive	Dead	Dead	Alive	Dead	Dead	Dead	Dead	Alive	Alive	Dead	Alive	Dead	Dead	Dead	Alive	Dead	Alive	Alive	Alive	Alive	Alive	Dead	Alive	Alive	Dead	Alive	Alive	Alive	Dead	Alive	Alive	Alive	Dead	Alive	Alive	Alive	Alive	Alive	Dead	Dead	Dead	Dead	Dead	Dead	Dead	Dead	Dead	Dead	Alive	Alive	Dead	Dead	Dead	Dead	Dead	Alive	Alive	Dead	Alive	Alive	Alive	Alive	Alive	Dead	Alive	Alive	Alive	-1	Alive	Alive	Alive	Dead	Alive	Alive	Dead	Dead	Alive	Alive	Alive	Alive	Alive	Dead	Alive	Dead	Alive	Alive	Dead	Dead	Dead	Dead	Alive	Dead	Dead	Dead	Dead	Dead	Dead	Dead	Dead	Dead	Dead	Dead	Dead	Dead	Alive	Alive	Alive	Alive	Dead	Dead	Alive	Dead	Alive	Dead	Dead	Alive	Dead	Dead	Dead	Alive	Dead	Alive	Alive	Alive	Alive	Alive	Dead	Alive	Alive	Alive	Alive	Alive	Dead	Dead	Dead	Dead	Dead	Dead	Dead	Dead	Alive	Dead	Dead	Dead	Dead	Dead	Dead	Dead	Dead	Dead	Dead	Dead	Alive	Alive	Alive	Alive	Dead	Alive	Alive	Dead	Dead	Alive	Dead
last_contact_days_to	279	144	345	558	705	322	1077	630	2512	627	1699	2362	612	1615	1300	748	315	2755	86	430	110	326	320	557	209	448	98	459	383	199	76	604	254	291	183	600	804	873	762	167	310	634	829	2729	691	7	1561	268	1757	516	106	822	1977	355	537	705	2818	3041	476	1489	503	515	539	327	440	121	422	432	485	372	301	235	323	5	484	782	133	764	322	377	441	321	1433	20	345	282	493	102	511	393	466	470	493	-1	8	123	1439	3	109	691	989	320	570	428	702	674	327	-1	280	-1	357	71	611	508	298	239	-1	-1	359	389	263	164	97	166	-1	-1	78	1730	-1	161	-1	579	95	396	7	67	83	1562	61	1642	578	77	1228	1126	801	866	454	313	557	142	214	79	12	197	167	119	151	360	6	378	684	11	548	315	359	-1	455	314	168	8	2145	143	245	5	1065	375	98	136	294	62	717	286	679	595	164	82	66	28	279	271	204	218	699	178	165	637	226	193	109	815	263	240	414	128	-1	33	23	150	282	86	259	181	207	182	133	13	285	342	108	254	138	268	273	260	204	155	83	114	187	139	120	237	164	-1	15	224	253	391	145	47	145	151	143	-1	-1	-1	164	165	690	1057	119	3310	53	132	419	316	231	104	1637	39	195	458	685	447	1084	594	29	352	134	279	330	31	478	97	322	9	17	107	235	358	259	561	1770	39	327	146	555	199	486	527	168	426	439	50	316	181	-1	218	2005	3	1161	790	734	186	80	551	0	378	1615	1311	167	277	452	434	2791	754	562	323	715	845	1179	272	626	3881	177	190	929	658	364	346	482	-1	442	121	104	427	287	769	414	195	1807	1315	784	351	333	358	1050	357	399	98	62	460	364	29	189	701	68	342	419	99	41	164	88	502	801	62	880	485	587	24	42	34	114	975	1788	703	216	35	918	28	1246	187	378	30	60	541	543	-1	179	218	532	242	12	115	104	-1	-1	581	1618	-1	119	302	793	496	131	883	25	301	406	111	556	425	195	358	666	262	13	434	103	327	276	181	394	141	772	106	218	385	112	99	154	4	294	148	33	229	5	124	-1	213	214	137	202	343	244	567	144	242	54	198	164	161	165	206	-1	504	305	-1	296	953	217	285	286	452	167	-1	37	48	241	71	260	146	505	0	555	1008	648	-1	427	350	753	316	316	489	231	87	438	480	345	6	77	280	254	232	258	37	47	86	4	143	95	20	205	145	343	222	160	-1	275	474	77	358	298	432	237	415	128	259	319	165	468	641	15	3	482	593	36	142	386	452	515	372	632	457	485	224	-1	270	224	400	338	113	383	357	330	165	26	406	272	290	30	135	184	6	351	236	124	44	449	-1	534	132	436	250	228	146	138	535	94	111	279	1458	77	328	508	100	82	346	519	-1	254	638	147	153	-1	7	282	235	237	-1	539	2	-1	-1	0	-1
death_days_to	358	144	345	558	705	322	1077	630	2512	627	-1	2362	612	1615	1300	748	370	2755	86	430	110	326	320	557	209	448	98	459	383	199	76	604	254	291	183	600	804	-1	-1	167	310	634	829	2729	691	384	1561	268	-1	516	106	822	1977	355	537	705	-1	3041	476	1489	503	515	539	327	440	121	422	432	485	372	301	235	323	223	484	782	133	764	322	377	441	321	1433	20	345	282	493	102	511	393	-1	-1	-1	82	187	620	1448	211	121	691	1024	394	771	435	812	737	362	6	313	67	357	71	611	541	307	262	592	1417	375	424	318	178	97	329	287	359	104	1731	324	178	347	598	100	399	136	98	123	-1	127	-1	616	111	-1	-1	828	-1	469	317	-1	142	225	169	12	233	256	232	225	360	16	457	735	22	603	415	405	621	-1	329	274	8	2201	143	291	96	1068	-1	175	175	298	64	717	-1	-1	-1	239	82	82	28	-1	-1	-1	-1	-1	-1	-1	-1	-1	208	123	815	-1	-1	414	-1	466	33	380	150	-1	-1	-1	-1	-1	182	133	-1	-1	357	108	254	138	-1	-1	-1	-1	-1	83	114	-1	-1	159	-1	164	45	3667	224	-1	-1	-1	-1	-1	-1	-1	57	95	78	-1	-1	690	1151	127	3524	53	256	782	370	298	889	1987	39	256	546	747	946	1143	678	103	468	134	372	454	82	548	467	425	22	382	130	235	1282	337	596	1785	588	327	146	635	221	486	560	230	467	448	395	1062	318	320	231	2883	3	1161	790	811	369	111	620	864	458	1638	1315	232	296	454	452	2791	754	562	323	715	845	1179	272	626	3881	177	231	1010	661	486	372	482	277	442	121	126	675	476	781	448	206	1818	1339	819	463	333	386	1062	442	454	98	62	460	364	29	189	701	68	342	419	99	41	164	88	502	801	62	880	485	587	24	42	34	114	975	-1	703	216	35	918	28	-1	203	378	30	60	541	543	232	179	-1	532	-1	12	-1	-1	419	1537	-1	-1	404	119	535	-1	498	-1	883	139	313	426	278	646	425	-1	-1	666	-1	20	434	-1	327	276	-1	394	141	772	111	-1	385	112	99	154	-1	-1	148	33	-1	5	124	737	213	-1	-1	202	-1	244	575	144	-1	54	-1	-1	-1	-1	-1	121	-1	-1	422	-1	-1	-1	285	-1	-1	-1	270	-1	-1	-1	-1	-1	154	505	300	737	1233	648	914	427	350	753	-1	-1	489	231	87	438	480	-1	-1	77	-1	-1	-1	-1	-1	47	-1	-1	-1	-1	-1	-1	-1	343	-1	-1	454	343	-1	-1	-1	-1	-1	335	-1	157	-1	-1	165	468	641	15	-1	482	593	36	142	386	452	515	372	632	457	485	224	269	-1	-1	-1	-1	113	383	-1	330	-1	26	406	-1	290	30	135	-1	6	-1	-1	-1	-1	-1	105	-1	-1	-1	-1	-1	146	138	535	94	111	279	1458	77	-1	508	100	82	346	519	165	254	638	147	153	114	-1	-1	-1	-1	49	-1	-1	180	191	-1	625
karnofsky_score	80	100	80	80	80	80	80	80	100	80	100	80	80	100	100	80	100	100	100	80	80	80	60	80	60	80	-1	100	80	80	80	80	80	80	80	100	80	80	80	80	80	80	80	80	80	80	80	100	80	100	80	100	80	80	80	80	100	80	80	80	-1	-1	-1	-1	-1	-1	-1	80	80	80	80	80	80	80	80	80	-1	80	80	80	80	100	80	80	80	80	80	60	80	60	80	80	80	-1	-1	-1	60	60	60	80	100	80	-1	-1	-1	80	60	90	80	-1	60	-1	-1	-1	-1	80	-1	70	-1	100	80	-1	40	80	90	-1	60	100	90	-1	90	100	80	100	-1	80	100	80	60	-1	60	60	80	100	60	100	-1	80	100	-1	100	-1	-1	-1	80	-1	-1	100	-1	100	80	-1	100	-1	80	90	100	-1	-1	-1	-1	-1	-1	-1	-1	80	-1	80	80	-1	-1	-1	100	80	80	80	-1	80	80	80	-1	80	80	80	60	80	80	80	60	60	80	80	-1	80	90	40	60	60	80	80	80	100	100	80	80	80	100	80	60	80	80	60	80	100	80	80	60	-1	100	40	80	100	80	-1	-1	-1	40	80	-1	-1	100	-1	90	-1	-1	60	70	100	80	80	80	80	60	80	100	80	-1	80	80	-1	80	60	100	80	80	80	-1	80	-1	100	80	60	80	80	60	-1	60	80	80	100	40	-1	80	80	-1	60	80	80	80	80	80	60	100	60	80	100	60	-1	80	-1	80	100	100	100	60	80	-1	100	80	100	60	80	80	80	-1	60	100	60	80	-1	100	60	80	80	-1	60	80	80	80	100	100	80	100	60	80	80	-1	80	80	60	60	80	80	80	80	80	80	80	-1	80	80	100	60	-1	80	80	60	40	60	40	60	60	40	60	80	60	60	60	60	40	80	60	80	80	80	80	80	60	60	-1	80	80	100	-1	60	80	80	80	100	60	60	80	-1	80	60	80	-1	80	80	60	-1	-1	-1	-1	-1	-1	-1	-1	-1	-1	-1	-1	-1	-1	-1	60	40	-1	60	-1	80	60	-1	80	60	60	40	80	60	60	60	-1	40	40	-1	80	-1	-1	-1	60	-1	80	40	100	80	60	-1	60	-1	80	80	80	80	-1	-1	100	100	-1	80	80	60	60	60	80	60	-1	-1	60	80	80	-1	80	80	100	80	80	80	80	80	80	80	80	80	80	80	40	80	80	60	80	-1	80	60	80	80	-1	60	80	80	-1	-1	20	80	80	90	80	60	80	70	70	-1	100	80	70	90	80	-1	70	90	-1	-1	-1	60	-1	-1	-1	-1	80	20	-1	-1	-1	-1	-1	80	-1	-1	-1	-1	-1	-1	-1	-1	-1	-1	-1	60	-1	60	60	-1	-1	-1	-1	-1	-1	-1	-1	70	100	90	90	100	100	80	100	80	80	80	80	80	80	80	80	80	80	60	80	80	0	80	80	60	80	0	60	80	80	80	40	-1	-1	-1	-1	-1	-1
age_at_initial_pathologic_diagnosis	44	50	59	56	40	61	20	18	25	50	50	43	38	35	47	27	33	39	54	60	74	48	54	54	61	78	80	43	49	44	62	66	28	68	66	50	57	31	70	53	68	63	57	28	59	36	63	45	27	52	46	42	29	54	56	56	43	37	52	51	36	54	14	68	26	78	50	57	49	40	74	69	61	82	51	46	77	48	41	67	50	67	36	70	62	61	62	67	61	57	43	53	64	81	84	67	63	86	67	66	30	54	49	64	63	43	40	86	62	81	58	53	33	51	76	74	45	32	68	54	61	57	63	73	74	56	47	47	52	51	44	59	68	65	72	54	69	34	64	38	64	76	63	54	69	71	55	62	58	37	63	65	51	40	52	76	72	47	55	66	61	67	31	75	46	57	65	51	57	71	43	76	56	77	63	71	55	60	77	73	39	53	69	66	59	53	50	43	61	72	78	74	52	50	30	79	54	42	75	61	56	61	81	28	47	76	75	83	53	81	72	50	59	23	65	24	21	54	72	51	78	67	61	60	23	45	75	58	45	63	64	49	58	44	64	76	64	65	53	58	76	60	21	78	79	53	64	30	62	31	57	66	71	69	50	63	46	32	40	79	58	52	30	59	49	50	59	76	69	51	74	71	74	59	69	60	63	75	69	48	69	14	34	60	70	17	61	17	52	56	64	78	36	49	60	57	65	48	48	69	51	60	74	63	75	46	55	52	46	24	75	52	53	51	45	49	40	62	46	38	38	57	75	53	64	58	10	58	66	56	65	55	61	75	68	62	75	47	86	58	47	59	61	76	46	77	60	34	60	56	59	49	70	49	36	50	69	54	64	65	78	69	60	67	55	67	74	60	66	61	52	78	54	58	57	39	60	69	54	61	23	54	63	59	66	31	58	70	51	57	52	44	74	38	40	65	21	55	36	65	85	57	54	52	65	49	66	48	55	70	57	72	36	71	48	83	77	61	70	69	51	81	58	51	63	72	64	48	39	69	56	82	55	70	83	65	51	76	60	74	36	68	47	52	76	62	58	72	83	53	56	77	56	39	68	40	36	63	48	43	60	68	74	59	74	72	78	65	57	65	47	57	66	59	67	56	53	33	36	59	52	48	34	63	56	79	81	62	76	77	44	73	40	61	42	53	52	78	71	48	59	65	63	77	37	69	45	72	71	52	66	42	72	53	62	52	63	47	67	60	59	21	65	63	57	69	72	76	68	49	60	63	58	59	62	48	80	82	67	25	40	73	56	47	73	66	89	67	59	75	88	81	48	63	59	73	61	69	54	67	73	51	58	77	55	76	68	58	85	76	70	50	66	52	57	74	78	57	63	71	64	60	66	74	73	54	58	44	49	64	33	50	68	72	51	55
